Apache Arrow in R - Part 2: Data Wrangling with Arrow
…
The NYC taxi zones table

One limitation to the main table in the NYC Taxi data is that pickup and dropoff locations are encoded using a numeric location_id variable that doesn’t give any human-readable interpretation to the geographic regions. There is an auxiliary CSV table provided by NYC TLC that we can use for this purpose. It’s a small table so we don’t need Arrow: we can load the data into R as a tibble. We’ll use the read_csv_arrow() function from the arrow package for this purpose:

nyc_taxi_zones <- "data/taxi_zone_lookup.csv" |> 
  read_csv_arrow() |>
  clean_names()

nyc_taxi_zones

# A tibble: 265 × 4
   location_id borough       zone                    service_zone
         <int> <chr>         <chr>                   <chr>       
 1           1 EWR           Newark Airport          EWR         
 2           2 Queens        Jamaica Bay             Boro Zone   
 3           3 Bronx         Allerton/Pelham Gardens Boro Zone   
 4           4 Manhattan     Alphabet City           Yellow Zone 
 5           5 Staten Island Arden Heights           Boro Zone   
 6           6 Staten Island Arrochar/Fort Wadsworth Boro Zone   
 7           7 Queens        Astoria                 Boro Zone   
 8           8 Queens        Astoria Park            Boro Zone   
 9           9 Queens        Auburndale              Boro Zone   
10          10 Queens        Baisley Park            Boro Zone   
# … with 255 more rows
…
The nyc_taxi_zones_arrow table is a handy one to look at for two reasons. Firstly it’s small (unlike the main nyc_taxi table!), so you can work with it quickly and let yourself make mistakes without worrying too much about computational efficiency. Secondly, it has text fields that make it a handy way to demonstrate arrow support for regular expressions and string manipulations.

Here’s an example. Suppose I want to create an abbreviate the names of the taxi zones by removing vowels and spaces (e.g., "Jamaica Bay" becomes "JmcBy"), and remove anything following a slash (e.g., "West Chelsea/Hudson Yards" becomes "WstChls"). It’s not the best way of constructing abbreviations but it’ll do for illustrative purposes. For each of these abbreviations I want to calculate the string length, and then sort the results from longest to shortest. If I were writing this for an R data frame like nyc_taxi_zones, here’s the code I’d use:

nyc_taxi_zones |>
  mutate(
    abbr_zone = zone |> 
      str_remove_all("[aeiou' ]") |>
      str_remove_all("/.*"),
    abbr_zone_len = str_length(abbr_zone)
  ) |>
  select(zone, abbr_zone, abbr_zone_len) |>
  arrange(desc(abbr_zone_len))

# A tibble: 265 × 3
   zone                         abbr_zone          abbr_zone_len
   <chr>                        <chr>                      <int>
 1 Prospect-Lefferts Gardens    Prspct-LffrtsGrdns            18
 2 Flushing Meadows-Corona Park FlshngMdws-CrnPrk             17
 3 Springfield Gardens North    SprngfldGrdnsNrth             17
 4 Springfield Gardens South    SprngfldGrdnsSth              16
 5 Washington Heights North     WshngtnHghtsNrth              16
 6 Williamsburg (North Side)    Wllmsbrg(NrthSd)              16
 7 Financial District North     FnnclDstrctNrth               15
 8 Washington Heights South     WshngtnHghtsSth               15
 9 Williamsburg (South Side)    Wllmsbrg(SthSd)               15
10 Financial District South     FnnclDstrctSth                14
# … with 255 more rows
…
nyc_taxi_zones_arrow |> 
  mutate(
    abbr_zone = zone |> 
      str_replace_all("[aeiou' ]", "") |>
      str_replace_all("/.*", "")
  ) |>
  mutate(
    abbr_zone_len = str_length(abbr_zone)
  ) |>
  select(zone, abbr_zone, abbr_zone_len) |>
  arrange(desc(abbr_zone_len)) |>
  collect()

# A tibble: 265 × 3
   zone                         abbr_zone          abbr_zone_len
   <chr>                        <chr>                      <int>
 1 Prospect-Lefferts Gardens    Prspct-LffrtsGrdns            18
 2 Flushing Meadows-Corona Park FlshngMdws-CrnPrk             17
 3 Springfield Gardens North    SprngfldGrdnsNrth             17
 4 Springfield Gardens South    SprngfldGrdnsSth              16
 5 Washington Heights North     WshngtnHghtsNrth              16
 6 Williamsburg (North Side)    Wllmsbrg(NrthSd)              16
 7 Financial District North     FnnclDstrctNrth               15
 8 Washington Heights South     WshngtnHghtsSth               15
 9 Williamsburg (South Side)    Wllmsbrg(SthSd)               15
10 Financial District South     FnnclDstrctSth                14
# … with 255 more rows
…
In the main example I read the data into R before moving it to Arrow. The read_csv_arrow() function allows you to read the data directly from a CSV file to an Arrow table, by setting as_data_frame = FALSE. See if you can recreate the entire pipeline without ever loading the data into an R data frame. Hint: you may need to use dplyr::rename() instead of janitor::clean_names().

nyc_taxi_zones_arrow |> 
  mutate(
    abbr_zone = zone |> 
      str_replace_all("[aeiou' ]", "") |>
      str_replace_all("/.*", ""),
    abbr_zone_len = str_length(abbr_zone)
  ) |>
  select(zone, abbr_zone, abbr_zone_len) |>
  arrange(desc(abbr_zone_len)) |>
  collect()

# A tibble: 265 × 3
   zone                         abbr_zone          abbr_zone_len
   <chr>                        <chr>                      <int>
 1 Prospect-Lefferts Gardens    Prspct-LffrtsGrdns            18
 2 Flushing Meadows-Corona Park FlshngMdws-CrnPrk             17
 3 Springfield Gardens North    SprngfldGrdnsNrth             17
 4 Springfield Gardens South    SprngfldGrdnsSth              16
 5 Washington Heights North     WshngtnHghtsNrth              16
 6 Williamsburg (North Side)    Wllmsbrg(NrthSd)              16
 7 Financial District North     FnnclDstrctNrth               15
 8 Washington Heights South     WshngtnHghtsSth               15
 9 Williamsburg (South Side)    Wllmsbrg(SthSd)               15
10 Financial District South     FnnclDstrctSth                14
# … with 255 more rows
…
Warning: Expression str_remove_all(str_remove_all(zone, "[aeiou' ]"), "/.*") not
supported in Arrow; pulling data into R

# A tibble: 265 × 3
   zone                         abbr_zone          abbr_zone_len
   <chr>                        <chr>                      <int>
 1 Prospect-Lefferts Gardens    Prspct-LffrtsGrdns            18
 2 Flushing Meadows-Corona Park FlshngMdws-CrnPrk             17
 3 Springfield Gardens North    SprngfldGrdnsNrth             17
 4 Springfield Gardens South    SprngfldGrdnsSth              16
 5 Washington Heights North     WshngtnHghtsNrth              16
 6 Williamsburg (North Side)    Wllmsbrg(NrthSd)              16
 7 Financial District North     FnnclDstrctNrth               15
 8 Washington Heights South     WshngtnHghtsSth               15
 9 Williamsburg (South Side)    Wllmsbrg(SthSd)               15
10 Financial District South     FnnclDstrctSth                14
# … with 255 more rows
…
    service_zone = service_zone
  ) |>  
  mutate(
    abbr_zone = zone |> 
      str_replace_all("[aeiou' ]", "") |>
      str_replace_all("/.*", "")
  ) |>
  mutate(
    abbr_zone_len = str_length(abbr_zone)
  ) |>
  select(zone, abbr_zone, abbr_zone_len) |>
  arrange(desc(abbr_zone_len)) |>
  collect()

# A tibble: 265 × 3
   zone                         abbr_zone          abbr_zone_len
   <chr>                        <chr>                      <int>
 1 Prospect-Lefferts Gardens    Prspct-LffrtsGrdns            18
 2 Flushing Meadows-Corona Park FlshngMdws-CrnPrk             17
 3 Springfield Gardens North    SprngfldGrdnsNrth             17
 4 Springfield Gardens South    SprngfldGrdnsSth              16
 5 Washington Heights North     WshngtnHghtsNrth              16
 6 Williamsburg (North Side)    Wllmsbrg(NrthSd)              16
 7 Financial District North     FnnclDstrctNrth               15
 8 Washington Heights South     WshngtnHghtsSth               15
 9 Williamsburg (South Side)    Wllmsbrg(SthSd)               15
10 Financial District South     FnnclDstrctSth                14
# … with 255 more rows
…
Notice the output here is tricky with regard to the hours. The data are in nyc_taxi are stored in UTC, and hours() extracts the hours component of that UTC time. However, I am currently in Sydney. My local time is set to UTC+11, and the print method for the collected R object shows the output in my local time. This is not ideal, but it’s not a failure of arrow per se, just a really annoying mismatch of conventions.

I’m loathe to say much more about date/time support in arrow because this is a rapidly moving target. For example, right now arrow does not understand the temporal rounding functions round_date(), floor_date(), and ceil_date(), but the sole reason for that is – literally – that I am writing this workshop rather than finishing the pull request that will add this functionality!

Two-table computations

Example 5: Basic joins

I’ll use the penguins data from the palmerpenguins package for this example. You don’t actually need to know anything about the data set but in case you don’t know it or need a reminder, here it is:

penguins

# A tibble: 344 × 8
   species island    bill_length_mm bill_depth_mm flipper_length_mm body_mass_g
   <fct>   <fct>              <dbl>         <dbl>             <int>       <int>
 1 Adelie  Torgersen           39.1          18.7               181        3750
 2 Adelie  Torgersen           39.5          17.4               186        3800
 3 Adelie  Torgersen           40.3          18                 195        3250
 4 Adelie  Torgersen           NA            NA                  NA          NA
 5 Adelie  Torgersen           36.7          19.3               193        3450
 6 Adelie  Torgersen           39.3          20.6               190        3650
 7 Adelie  Torgersen           38.9          17.8               181        3625
 8 Adelie  Torgersen           39.2          19.6               195        4675
 9 Adelie  Torgersen           34.1          18.1               193        3475
10 Adelie  Torgersen           42            20.2               190        4250
# … with 334 more rows, and 2 more variables: sex <fct>, year <int>
…
See $.data for the source Arrow object

The result is an unevaluated query. If we want to execute this and then pull the results back into R we need to call collect() at the end of the pipeline. So we’ll do that, after using select() so that the columns returned just so happen to be the same ones shown in the pretty picture above:

penguins |> 
  arrow_table() |>
  left_join(location) |> 
  select(species, island, bill_length_mm, lon, lat) |>
  collect()

# A tibble: 344 × 5
   species island    bill_length_mm   lon   lat
   <fct>   <fct>              <dbl> <dbl> <dbl>
 1 Adelie  Torgersen           39.1 -64.8 -64.1
 2 Adelie  Torgersen           39.5 -64.8 -64.1
 3 Adelie  Torgersen           40.3 -64.8 -64.1
 4 Adelie  Torgersen           NA   -64.8 -64.1
 5 Adelie  Torgersen           36.7 -64.8 -64.1
 6 Adelie  Torgersen           39.3 -64.8 -64.1
 7 Adelie  Torgersen           38.9 -64.8 -64.1
 8 Adelie  Torgersen           39.2 -64.8 -64.1
 9 Adelie  Torgersen           34.1 -64.8 -64.1
10 Adelie  Torgersen           42   -64.8 -64.1
# … with 334 more rows
…
Example 6: Traps for the unwary

Now let’s do something more a little more realistic using the nyc_taxi data, but in doing so we’re going to need to be very careful.

Let’s imagine that our task is to analyze the taxi data as a function of the pickup and dropoff boroughs. To start with we’ll keep things simple: we’ll ignore the dropoff location and focus only on the pickups. All we want to do is add a column to the nyc_taxi dataset named pickup_borough. We’ll go through this slowly. First, let’s create a version of the taxi zones data that contains appropriately named variables:

pickup <- nyc_taxi_zones |> 
  select(
    pickup_location_id = location_id, 
    pickup_borough = borough
  )

pickup

# A tibble: 265 × 2
   pickup_location_id pickup_borough
                <int> <chr>         
 1                  1 EWR           
 2                  2 Queens        
 3                  3 Bronx         
 4                  4 Manhattan     
 5                  5 Staten Island 
 6                  6 Staten Island 
 7                  7 Queens        
 8                  8 Queens        
 9                  9 Queens        
10                 10 Queens        
# … with 255 more rows
…
525.445 sec elapsed

Be warned! Although the code is clean and it all works nicely, this query does take a little while to complete. Still, when you consider the fact that a humble 2022 Dell XPS13 laptop just joined twice onto a 1.7 billion row table and cross-tabulated by the newly-inserted columns, that’s not too shabby. Anyway, here’s the results:

borough_counts

# A tibble: 50 × 3
   pickup_borough dropoff_borough          n
   <chr>          <chr>                <int>
 1 <NA>           <NA>            1249152360
 2 Manhattan      Manhattan        355850092
 3 Queens         Manhattan         14648891
 4 Manhattan      Queens            13186443
 5 Manhattan      Brooklyn          11294128
 6 Queens         Queens             7537042
 7 Unknown        Unknown            4519763
 8 Queens         Brooklyn           3727686
 9 Brooklyn       Brooklyn           3566671
10 Manhattan      Bronx              2091627
# … with 40 more rows
…
0.559 sec elapsed

numerology

# A tibble: 37 × 3
   trip_id magic_number pickup_datetime    
     <dbl>        <int> <dttm>             
 1   13159           59 2022-01-01 02:59:59
 2   39159          959 2022-01-01 15:59:59
 3   65940           59 2022-01-02 01:59:59
 4  159315          595 2022-01-03 14:59:59
 5  405954          595 2022-01-06 18:59:59
 6  405955         5955 2022-01-06 18:59:59
 7  487592           59 2022-01-07 21:59:59
 8  590708           59 2022-01-09 07:59:59
 9  590709          599 2022-01-09 07:59:59
10  590710           59 2022-01-09 07:59:59
# … with 27 more rows
…
