Apache Arrow in R - Part 3: Data Storage
…
Parquet file readers can use metadata to scan the file intelligently: if we know in advance that only some subset of the table is needed for a query, the reader can skip to the relevant pages

Data are stored in a compressed binary format, which reduces file size relative to an uncompressed text format such as CSV.

That being said, you probably won’t be surprised to hear that we’re glossing over a lot of details here. You wouldn’t be able to code a parquet reader on the basis of this simplified description! However, that’s not our goal here: the purpose of this description is to give you enough of a sense of how a parquet file is organized, so you can understand why they’re handy when working with large data! You can find a lot more information about these details in the Apache Parquet documentation.

A single parquet file generally contains a quantity of data small enough to load into memory. For example, let’s say I want to load the NYC taxi data for September 2019. This subset of the data can be stored in a 122MB parquet file, and I can load the whole thing into R as a conventional data frame. It’s about 6.5 million rows, but that’s not too much of a challenge:

parquet_file <- "~/Datasets/nyc-taxi/year=2019/month=9/part-0.parquet"

nyc_taxi_2019_09 <- read_parquet(parquet_file)
nyc_taxi_2019_09

# A tibble: 6,567,396 × 22
   vendor_name pickup_datetime     dropoff_datetime    passenger_count
   <chr>       <dttm>              <dttm>                        <int>
 1 VTS         2019-09-01 15:14:09 2019-09-01 15:31:52               2
 2 VTS         2019-09-01 15:36:17 2019-09-01 16:12:44               1
 3 VTS         2019-09-01 15:29:19 2019-09-01 15:54:13               1
 4 CMT         2019-09-01 15:33:09 2019-09-01 15:52:14               2
 5 VTS         2019-09-01 15:57:43 2019-09-01 16:26:21               1
 6 CMT         2019-09-01 15:59:16 2019-09-01 16:28:12               1
 7 CMT         2019-09-01 15:20:06 2019-09-01 15:52:19               1
 8 CMT         2019-09-01 15:27:54 2019-09-01 15:32:56               0
 9 CMT         2019-09-01 15:35:08 2019-09-01 15:55:51               0
10 CMT         2019-09-01 15:19:37 2019-09-01 15:30:52               1
# … with 6,567,386 more rows, and 18 more variables: trip_distance <dbl>,
#   pickup_longitude <dbl>, pickup_latitude <dbl>, rate_code <chr>,
#   store_and_fwd <chr>, dropoff_longitude <dbl>, dropoff_latitude <dbl>,
#   payment_type <chr>, fare_amount <dbl>, extra <dbl>, mta_tax <dbl>,
#   tip_amount <dbl>, tolls_amount <dbl>, total_amount <dbl>,
#   improvement_surcharge <dbl>, congestion_surcharge <dbl>,
#   pickup_location_id <int>, dropoff_location_id <int>

One thing to highlight here is that the columnar structure to parquet files makes it possible to load only a subset of the columns:

parquet_file |>
  read_parquet(col_select = matches("pickup"))

# A tibble: 6,567,396 × 4
   pickup_datetime     pickup_longitude pickup_latitude pickup_location_id
   <dttm>                         <dbl>           <dbl>              <int>
 1 2019-09-01 15:14:09               NA              NA                186
 2 2019-09-01 15:36:17               NA              NA                138
 3 2019-09-01 15:29:19               NA              NA                132
 4 2019-09-01 15:33:09               NA              NA                 79
 5 2019-09-01 15:57:43               NA              NA                132
 6 2019-09-01 15:59:16               NA              NA                132
 7 2019-09-01 15:20:06               NA              NA                132
 8 2019-09-01 15:27:54               NA              NA                224
 9 2019-09-01 15:35:08               NA              NA                 79
10 2019-09-01 15:19:37               NA              NA                 97
# … with 6,567,386 more rows
…
