Apache Arrow in R - Packages and Data
…
In any case, if you want to use the full NYC taxi data, the command you use to open the data set is the same: you just point R to the folder containing the full data set rather than the tiny one.

nyc_taxi <- open_dataset("~/Datasets/nyc-taxi/")

Regardless of which version of the data you’re using, you’re good to go.

Ancillary data files

Before moving on, it’s worth mentioning that the NYC taxi data website also includes a taxi_zone_lookup.csv file that includes human-readable names for the taxi zones. We’ll be using that file in the workshop, so you may wish to download iit also. Here’s a quick look at its contents:

zones <- read_csv_arrow("data/taxi_zone_lookup.csv")
zones

# A tibble: 265 × 4
   LocationID Borough       Zone                    service_zone
        <int> <chr>         <chr>                   <chr>       
 1          1 EWR           Newark Airport          EWR         
 2          2 Queens        Jamaica Bay             Boro Zone   
 3          3 Bronx         Allerton/Pelham Gardens Boro Zone   
 4          4 Manhattan     Alphabet City           Yellow Zone 
 5          5 Staten Island Arden Heights           Boro Zone   
 6          6 Staten Island Arrochar/Fort Wadsworth Boro Zone   
 7          7 Queens        Astoria                 Boro Zone   
 8          8 Queens        Astoria Park            Boro Zone   
 9          9 Queens        Auburndale              Boro Zone   
10         10 Queens        Baisley Park            Boro Zone   
# … with 255 more rows
…
About 1.7 billion rows. That’s quite a lot.

A dplyr pipeline

If you want to make sure everything is working properly, let’s do a simple analysis. We’ll count the number of trips with destinations in each zone:

zone_counts <- nyc_taxi |> 
  count(dropoff_location_id) |> 
  arrange(desc(n)) |> 
  collect() 

zone_counts

# A tibble: 265 × 2
   dropoff_location_id          n
                 <int>      <int>
 1                  NA 1249152360
 2                 236   16489001
 3                 161   15643391
 4                 237   15526930
 5                 170   13328885
 6                 162   12631075
 7                 230   12565352
 8                  48   11482627
 9                 234   11276120
10                 142   11136863
# … with 255 more rows
…
