Apache Arrow in R - Larger-Than-Memory Data Workflows with Apache Arrow
…
String edits

Section 5: In which {arrow} translates {stringr} code

NYC taxi zones table

nyc_taxi_zones <- "data/taxi_zone_lookup.csv" |> 
  read_csv_arrow() |>
  clean_names()

nyc_taxi_zones

# A tibble: 265 × 4
   location_id borough       zone                    service_zone
         <int> <chr>         <chr>                   <chr>       
 1           1 EWR           Newark Airport          EWR         
 2           2 Queens        Jamaica Bay             Boro Zone   
 3           3 Bronx         Allerton/Pelham Gardens Boro Zone   
 4           4 Manhattan     Alphabet City           Yellow Zone 
 5           5 Staten Island Arden Heights           Boro Zone   
 6           6 Staten Island Arrochar/Fort Wadsworth Boro Zone   
 7           7 Queens        Astoria                 Boro Zone   
 8           8 Queens        Astoria Park            Boro Zone   
 9           9 Queens        Auburndale              Boro Zone   
10          10 Queens        Baisley Park            Boro Zone   
# … with 255 more rows
…
why use two mutate() calls?

why use str_replace_all() and not str_remove_all()

String manipulation exercise

collect(short_zones)

# A tibble: 265 × 3
   zone                         abbr_zone          abbr_zone_len
   <chr>                        <chr>                      <int>
 1 Prospect-Lefferts Gardens    Prspct-LffrtsGrdns            18
 2 Flushing Meadows-Corona Park FlshngMdws-CrnPrk             17
 3 Springfield Gardens North    SprngfldGrdnsNrth             17
 4 Springfield Gardens South    SprngfldGrdnsSth              16
 5 Washington Heights North     WshngtnHghtsNrth              16
 6 Williamsburg (North Side)    Wllmsbrg(NrthSd)              16
 7 Financial District North     FnnclDstrctNrth               15
 8 Washington Heights South     WshngtnHghtsSth               15
 9 Williamsburg (South Side)    Wllmsbrg(SthSd)               15
10 Financial District South     FnnclDstrctSth                14
# … with 255 more rows
…
